{
  "version": 1,
  "isRoot": true,
  "tools": {
    "csharpier": {
      "version": "0.25.0",
      "commands": [
        "dotnet-csharpier"
      ]
    },
    "dotnet-ef": {
      "version": "7.0.12",
      "commands": [
        "dotnet-ef"
      ]
    }
  }
}